{
  "name": "VydeoSDK",
  "version": "2.0.16",
  "authors": {
    "Vyu Labs, Inc.": "VydeoSDK@VydeoSDK.io"
  },
  "license": {
    "type": "Proprietary",
    "file": "LICENSE"
  },
  "homepage": "http://VydeoSDK.io/",
  "social_media_url": "http://twitter.com/fandate",
  "documentation_url": "http://VydeoSDK.io/docs/",
  "source": {
    "http": "http://vydeomedia.vyulabs.com/sdk/2.0.16/VydeoSDK-iOS.zip"
  },
  "summary": "Framework for feature-rich realtime video communications",
  "platforms": {
    "ios": "9.0"
  },
  "frameworks": [
    "AVFoundation",
    "UIKit",
    "CoreMedia",
    "VideoToolbox"
  ],
  "ios": {
    "source_files": "VydeoSDK-iOS/VydeoSDK.framework/Headers/*.h",
    "public_header_files": "VydeoSDK-iOS/VydeoSDK.framework/Headers/*.h",
    "vendored_frameworks": "VydeoSDK-iOS/VydeoSDK.framework"
  },
  "dependencies": {
    "LinqToObjectiveC": [],
    "CocoaAsyncSocket": [],
    "AFNetworking": "~> 3.0",
    "TPCircularBuffer": [],
    "TheAmazingAudioEngine": [],
    "MagicalRecord": [],
    "KeepLayout/ObjC": [],
    "MHCustomTabBarController": [],
    "ProtocolBuffers": [],
    "libopus": [],
    "Underscore.m": [],
    "FFCTemplate": [],
    "MBAutoGrowingTextView": [],
    "CocoaLumberjack": [],
    "Toast": [],
    "SCRecorder": [],
    "MBCircularProgressBar": [],
    "DGActivityIndicatorView": [],
    "reactivext": [],
    "VydeoVisuals": [],
    "GoogleAds-IMA-iOS-SDK": "~> 3.7"
  }
}
